// Jest Snapshot v1, https://goo.gl/fbAQLP

exports[`Components/Button Default smoke-test 1`] = `
<button color="primary"
        class="sc-aXZVg sc-fqkvVR ckSHMD kxoDeX"
>
  <svg width="24"
       height="24"
       viewbox="0 0 25 25"
       fill="none"
       xmlns="http://www.w3.org/2000/svg"
       style="transform: scale(1);"
  >
    <path d="M9.5 6.1377C10.6046 6.1377 11.5 5.24226 11.5 4.1377C11.5 3.03313 10.6046 2.1377 9.5 2.1377C8.39543 2.1377 7.5 3.03313 7.5 4.1377C7.5 5.24226 8.39543 6.1377 9.5 6.1377Z"
          fill="#212121"
    >
    </path>
    <path d="M17.4797 14.9417C17.4344 14.7151 17.312 14.5112 17.1333 14.3646C16.9547 14.218 16.7308 14.1378 16.4997 14.1377H12.3667L11.9377 11.1377H16.4997V9.1377H11.6527L11.4897 7.9957C11.4555 7.7575 11.3366 7.53961 11.1547 7.38201C10.9729 7.22441 10.7403 7.13766 10.4997 7.1377H9.49968C9.3565 7.13817 9.21508 7.16929 9.08493 7.22897C8.95478 7.28865 8.83892 7.37551 8.74513 7.48369C8.65134 7.59188 8.58181 7.71889 8.54119 7.85619C8.50058 7.99349 8.48984 8.1379 8.50968 8.2797L9.38668 14.4217C9.45679 14.8973 9.69514 15.332 10.0584 15.6469C10.4217 15.9618 10.8859 16.1359 11.3667 16.1377H15.6797L16.5187 20.3337C16.6127 20.8007 17.0227 21.1377 17.4997 21.1377H20.4997V19.1377H18.3187L17.4797 14.9417Z"
          fill="#212121"
    >
    </path>
    <path d="M13.01 17.6378C12.271 19.1138 10.76 20.1378 9 20.1378C7.80693 20.1365 6.66311 19.6619 5.81948 18.8183C4.97585 17.9747 4.50132 16.8309 4.5 15.6378C4.50168 14.7418 4.77064 13.8666 5.27246 13.1243C5.77428 12.382 6.48615 11.8063 7.317 11.4708L7.028 9.4458C4.405 10.2828 2.5 12.7418 2.5 15.6378C2.5 19.2218 5.416 22.1378 9 22.1378C10.1148 22.1362 11.2104 21.8479 12.1816 21.3004C13.1527 20.7529 13.9666 19.9648 14.545 19.0118L14.271 17.6378H13.01Z"
          fill="#212121"
    >
    </path>
  </svg>
  <span>
    Accessibility
  </span>
</button>
`;
