<svg width="25" height="25" viewBox="0 0 25 25" fill="none" xmlns="http://www.w3.org/2000/svg">
<path d="M17.65 20.8377L11.6 14.7377C11.2667 14.871 10.9293 14.971 10.588 15.0377C10.2467 15.1044 9.884 15.1377 9.5 15.1377C7.83333 15.1377 6.41667 14.5544 5.25 13.3877C4.08333 12.221 3.5 10.8044 3.5 9.1377C3.5 8.5377 3.58333 7.96703 3.75 7.4257C3.91667 6.88436 4.15 6.3717 4.45 5.8877L8.1 9.53769L9.9 7.7377L6.25 4.0877C6.73333 3.7877 7.246 3.55436 7.788 3.3877C8.33 3.22103 8.90067 3.1377 9.5 3.1377C11.1667 3.1377 12.5833 3.72103 13.75 4.8877C14.9167 6.05436 15.5 7.47103 15.5 9.1377C15.5 9.52103 15.4667 9.8837 15.4 10.2257C15.3333 10.5677 15.2333 10.905 15.1 11.2377L21.2 17.2877C21.4 17.4877 21.5 17.7294 21.5 18.0127C21.5 18.296 21.4 18.5377 21.2 18.7377L19.1 20.8377C18.9 21.0377 18.6583 21.1377 18.375 21.1377C18.0917 21.1377 17.85 21.0377 17.65 20.8377Z" fill="white"/>
</svg>
