<svg width="25" height="25" viewBox="0 0 25 25" fill="none" xmlns="http://www.w3.org/2000/svg">
<path d="M9.9 16.1377L12.5 13.5377L15.1 16.1377L16.5 14.7377L13.9 12.1377L16.5 9.5377L15.1 8.1377L12.5 10.7377L9.9 8.1377L8.5 9.5377L11.1 12.1377L8.5 14.7377L9.9 16.1377ZM4.5 20.1377C3.95 20.1377 3.479 19.9417 3.087 19.5497C2.695 19.1577 2.49934 18.687 2.5 18.1377V6.1377C2.5 5.5877 2.696 5.1167 3.088 4.7247C3.48 4.3327 3.95067 4.13703 4.5 4.1377H20.5C21.05 4.1377 21.521 4.3337 21.913 4.7257C22.305 5.1177 22.5007 5.58836 22.5 6.1377V18.1377C22.5 18.6877 22.304 19.1587 21.912 19.5507C21.52 19.9427 21.0493 20.1384 20.5 20.1377H4.5ZM4.5 18.1377H20.5V6.1377H4.5V18.1377Z" fill="white"/>
</svg>
