<svg width="25" height="25" viewBox="0 0 25 25" fill="none" xmlns="http://www.w3.org/2000/svg">
<path d="M7.91 15.5477L12.5 10.9677L17.09 15.5477L18.5 14.1377L12.5 8.1377L6.5 14.1377L7.91 15.5477Z" fill="white"/>
</svg>
