<svg width="25" height="25" viewBox="0 0 25 25" fill="none" xmlns="http://www.w3.org/2000/svg">
<path d="M6.5 14.1377H18.5V12.1377H6.5V14.1377ZM6.5 11.1377H18.5V9.1377H6.5V11.1377ZM6.5 8.1377H18.5V6.1377H6.5V8.1377ZM4.5 18.1377C3.95 18.1377 3.479 17.9417 3.087 17.5497C2.695 17.1577 2.49934 16.687 2.5 16.1377V4.1377C2.5 3.5877 2.696 3.1167 3.088 2.7247C3.48 2.3327 3.95067 2.13703 4.5 2.1377H20.5C21.05 2.1377 21.521 2.3337 21.913 2.7257C22.305 3.1177 22.5007 3.58836 22.5 4.1377V22.1377L18.5 18.1377H4.5Z" fill="white"/>
</svg>
