<svg width="25" height="25" viewBox="0 0 25 25" fill="none" xmlns="http://www.w3.org/2000/svg">
<path d="M20.5 6.1377H12.5L10.5 4.1377H4.5C3.39 4.1377 2.51 5.0277 2.51 6.1377L2.5 18.1377C2.5 19.2477 3.39 20.1377 4.5 20.1377H20.5C21.61 20.1377 22.5 19.2477 22.5 18.1377V8.1377C22.5 7.0277 21.61 6.1377 20.5 6.1377ZM19.5 14.1377H16.5V17.1377H14.5V14.1377H11.5V12.1377H14.5V9.1377H16.5V12.1377H19.5V14.1377Z" fill="#FCFCFC"/>
</svg>
