<svg width="25" height="25" viewBox="0 0 25 25" fill="none" xmlns="http://www.w3.org/2000/svg">
<path d="M19.0625 2.1377H5.9375C5.41973 2.1377 5 2.55742 5 3.0752V3.7002C5 4.21797 5.41973 4.6377 5.9375 4.6377C5.9375 8.19102 7.93031 11.1898 10.6579 12.1377C7.93031 13.0856 5.9375 16.0844 5.9375 19.6377C5.41973 19.6377 5 20.0574 5 20.5752V21.2002C5 21.718 5.41973 22.1377 5.9375 22.1377H19.0625C19.5803 22.1377 20 21.718 20 21.2002V20.5752C20 20.0574 19.5803 19.6377 19.0625 19.6377C19.0625 16.0844 17.0697 13.0856 14.3421 12.1377C17.0697 11.1898 19.0625 8.19102 19.0625 4.6377C19.5803 4.6377 20 4.21797 20 3.7002V3.0752C20 2.55742 19.5803 2.1377 19.0625 2.1377ZM16.5625 19.6377H8.4375C8.4375 16.612 10.2423 14.0127 12.5 14.0127C14.7573 14.0127 16.5625 16.611 16.5625 19.6377Z" fill="#FCFCFC"/>
</svg>
