<svg width="25" height="25" viewBox="0 0 25 25" fill="none" xmlns="http://www.w3.org/2000/svg">
<path d="M12.4998 18.1377L12.4998 10.1377M12.4498 6.13769V6.03769H12.5498V6.13769H12.4498Z" stroke="#FCFCFC" stroke-width="1.33333" stroke-linecap="round" stroke-linejoin="round"/>
</svg>
