<svg width="25" height="25" viewBox="0 0 25 25" fill="none" xmlns="http://www.w3.org/2000/svg">
<g clip-path="url(#clip0_77_239)">
<path d="M7.12 10.9277C8.56 13.7577 10.88 16.0777 13.71 17.5177L15.91 15.3177C16.19 15.0377 16.58 14.9577 16.93 15.0677C18.05 15.4377 19.25 15.6377 20.5 15.6377C20.7652 15.6377 21.0196 15.7431 21.2071 15.9306C21.3946 16.1181 21.5 16.3725 21.5 16.6377V20.1377C21.5 20.4029 21.3946 20.6573 21.2071 20.8448C21.0196 21.0323 20.7652 21.1377 20.5 21.1377C15.9913 21.1377 11.6673 19.3466 8.47918 16.1585C5.29107 12.9704 3.5 8.64638 3.5 4.1377C3.5 3.87248 3.60536 3.61812 3.79289 3.43059C3.98043 3.24305 4.23478 3.1377 4.5 3.1377H8C8.26522 3.1377 8.51957 3.24305 8.70711 3.43059C8.89464 3.61812 9 3.87248 9 4.1377C9 5.3877 9.2 6.5877 9.57 7.7077C9.68 8.0577 9.6 8.4477 9.32 8.7277L7.12 10.9277Z" fill="white"/>
</g>
<defs>
<clipPath id="clip0_77_239">
<rect width="24" height="24" fill="white" transform="translate(0.5 0.137695)"/>
</clipPath>
</defs>
</svg>
