<svg width="25" height="24" viewBox="0 0 25 24" fill="none" xmlns="http://www.w3.org/2000/svg">
<path d="M16.6377 9V13.66L13.1377 17.17V19H12.1377V17.17L8.6377 13.65V9H16.6377ZM16.6377 3H14.6377V7H10.6377V3H8.6377V7H8.6277C7.5377 6.99 6.6377 7.89 6.6377 8.98V14.5L10.1377 18V21H15.1377V18L18.6377 14.49V9C18.6377 7.9 17.7377 7 16.6377 7V3Z" fill="white"/>
</svg>
