<svg width="25" height="25" viewBox="0 0 25 25" fill="none" xmlns="http://www.w3.org/2000/svg">
<path d="M15 4.1377C15 4.66813 14.7893 5.17684 14.4142 5.55191C14.0391 5.92698 13.5304 6.1377 13 6.1377C12.4696 6.1377 11.9609 5.92698 11.5858 5.55191C11.2107 5.17684 11 4.66813 11 4.1377C11 3.60726 11.2107 3.09855 11.5858 2.72348C11.9609 2.34841 12.4696 2.1377 13 2.1377C13.5304 2.1377 14.0391 2.34841 14.4142 2.72348C14.7893 3.09855 15 3.60726 15 4.1377Z" fill="#FCFCFC"/>
<path fill-rule="evenodd" clip-rule="evenodd" d="M11.3255 13.8727C11.1761 13.8463 11.0346 13.7861 10.912 13.6967L8.16201 11.6967C7.9561 11.547 7.81502 11.3244 7.76755 11.0743C7.72007 10.8242 7.76977 10.5654 7.90651 10.3507L7.90701 10.3497L7.90851 10.3477L7.91351 10.3402L7.92951 10.3147C8.02058 10.1733 8.11376 10.0333 8.20901 9.8947C8.39151 9.6267 8.64601 9.2657 8.92751 8.9012C9.20451 8.5427 9.52901 8.1532 9.85151 7.8447C10.012 7.6912 10.1965 7.5342 10.395 7.4097C10.5725 7.2977 10.876 7.1377 11.25 7.1377H12.25C12.4613 7.1378 12.6672 7.20484 12.838 7.3292H12.839L12.84 7.3302L12.843 7.3322L12.8515 7.3387L12.8805 7.3602L12.9815 7.4372C13.0665 7.5027 13.187 7.5982 13.3335 7.7192C13.7236 8.04303 14.0985 8.38473 14.457 8.7432C15.307 9.5932 16.3545 10.8317 16.9285 12.2662C17.261 13.0972 17.269 13.8762 17.0025 14.5627C16.746 15.2222 16.2765 15.6902 15.838 16.0087C15.398 16.3292 14.9345 16.5387 14.596 16.6667C14.455 16.7202 14.331 16.7612 14.231 16.7917L13.5 20.6377V21.1377C13.5 21.4029 13.3947 21.6573 13.2071 21.8448C13.0196 22.0323 12.7652 22.1377 12.5 22.1377C12.2348 22.1377 11.9804 22.0323 11.7929 21.8448C11.6054 21.6573 11.5 21.4029 11.5 21.1377V20.6377C11.5 17.7102 11.4985 15.8092 11.3255 13.8727ZM10.9965 11.2852C10.9176 10.8009 10.8319 10.3176 10.7395 9.8357C10.525 10.1001 10.3189 10.3712 10.1215 10.6487L10.9965 11.2852Z" fill="#FCFCFC"/>
</svg>
