<svg width="25" height="24" viewBox="0 0 25 24" fill="none" xmlns="http://www.w3.org/2000/svg">
<path d="M3.6377 20V4L22.6377 12L3.6377 20ZM5.6377 17L17.4877 12L5.6377 7V10.5L11.6377 12L5.6377 13.5V17Z" fill="white"/>
</svg>
