<svg width="25" height="25" viewBox="0 0 25 25" fill="none" xmlns="http://www.w3.org/2000/svg">
<path d="M17.9167 12.1377C17.9167 12.4085 17.8342 12.6429 17.6693 12.8408L10.5859 21.3408C10.421 21.5387 10.2257 21.6377 10 21.6377C9.77431 21.6377 9.57899 21.5387 9.41406 21.3408C9.24913 21.1429 9.16667 20.9085 9.16667 20.6377V16.1377H3.33333C3.10764 16.1377 2.91233 16.0387 2.7474 15.8408C2.58247 15.6429 2.5 15.4085 2.5 15.1377V9.1377C2.5 8.86686 2.58247 8.63249 2.7474 8.43457C2.91233 8.23665 3.10764 8.1377 3.33333 8.1377H9.16667V3.6377C9.16667 3.36686 9.24913 3.13249 9.41406 2.93457C9.57899 2.73665 9.77431 2.6377 10 2.6377C10.2257 2.6377 10.421 2.73665 10.5859 2.93457L17.6693 11.4346C17.8342 11.6325 17.9167 11.8669 17.9167 12.1377ZM22.5 6.6377V17.6377C22.5 18.8773 22.1332 19.9372 21.3997 20.8174C20.6662 21.6976 19.783 22.1377 18.75 22.1377H14.5833C14.4705 22.1377 14.3728 22.0882 14.2904 21.9893C14.2079 21.8903 14.1667 21.7731 14.1667 21.6377C14.1667 21.596 14.1623 21.4919 14.1536 21.3252C14.145 21.1585 14.1428 21.0205 14.1471 20.9111C14.1515 20.8018 14.1645 20.6794 14.1862 20.5439C14.2079 20.4085 14.2513 20.307 14.3164 20.2393C14.3815 20.1716 14.4705 20.1377 14.5833 20.1377H18.75C19.3229 20.1377 19.8134 19.8929 20.2214 19.4033C20.6293 18.9137 20.8333 18.3252 20.8333 17.6377V6.6377C20.8333 5.9502 20.6293 5.36165 20.2214 4.87207C19.8134 4.38249 19.3229 4.1377 18.75 4.1377H14.6875L14.5378 4.12207L14.388 4.0752L14.2839 3.98926L14.1927 3.84863L14.1667 3.6377C14.1667 3.59603 14.1623 3.49186 14.1536 3.3252C14.145 3.15853 14.1428 3.02051 14.1471 2.91113C14.1515 2.80176 14.1645 2.67936 14.1862 2.54395C14.2079 2.40853 14.2513 2.30697 14.3164 2.23926C14.3815 2.17155 14.4705 2.1377 14.5833 2.1377H18.75C19.783 2.1377 20.6662 2.5778 21.3997 3.45801C22.1332 4.33822 22.5 5.39811 22.5 6.6377Z" fill="#FCFCFC"/>
</svg>
