<svg width="25" height="24" viewBox="0 0 25 24" fill="none" xmlns="http://www.w3.org/2000/svg">
<path d="M12.3623 4C13.4232 4 14.4406 4.42143 15.1907 5.17157C15.9409 5.92172 16.3623 6.93913 16.3623 8C16.3623 9.06087 15.9409 10.0783 15.1907 10.8284C14.4406 11.5786 13.4232 12 12.3623 12C11.3014 12 10.284 11.5786 9.53388 10.8284C8.78373 10.0783 8.3623 9.06087 8.3623 8C8.3623 6.93913 8.78373 5.92172 9.53388 5.17157C10.284 4.42143 11.3014 4 12.3623 4ZM12.3623 14C16.7823 14 20.3623 15.79 20.3623 18V20H4.3623V18C4.3623 15.79 7.9423 14 12.3623 14Z" fill="white"/>
</svg>
