<svg width="25" height="25" viewBox="0 0 25 25" fill="none" xmlns="http://www.w3.org/2000/svg">
<g clip-path="url(#clip0_164_2442)">
<path d="M12.5 2.1377C18.023 2.1377 22.5 6.6147 22.5 12.1377C22.5 17.6607 18.023 22.1377 12.5 22.1377C6.977 22.1377 2.5 17.6607 2.5 12.1377C2.5 6.6147 6.977 2.1377 12.5 2.1377ZM12.5 4.1377C10.3783 4.1377 8.34344 4.98055 6.84315 6.48084C5.34285 7.98113 4.5 10.016 4.5 12.1377C4.5 14.2594 5.34285 16.2943 6.84315 17.7945C8.34344 19.2948 10.3783 20.1377 12.5 20.1377C14.6217 20.1377 16.6566 19.2948 18.1569 17.7945C19.6571 16.2943 20.5 14.2594 20.5 12.1377C20.5 10.016 19.6571 7.98113 18.1569 6.48084C16.6566 4.98055 14.6217 4.1377 12.5 4.1377ZM12.5 15.1377C12.7652 15.1377 13.0196 15.2431 13.2071 15.4306C13.3946 15.6181 13.5 15.8725 13.5 16.1377C13.5 16.4029 13.3946 16.6573 13.2071 16.8448C13.0196 17.0323 12.7652 17.1377 12.5 17.1377C12.2348 17.1377 11.9804 17.0323 11.7929 16.8448C11.6054 16.6573 11.5 16.4029 11.5 16.1377C11.5 15.8725 11.6054 15.6181 11.7929 15.4306C11.9804 15.2431 12.2348 15.1377 12.5 15.1377ZM12.5 6.1377C12.7652 6.1377 13.0196 6.24305 13.2071 6.43059C13.3946 6.61812 13.5 6.87248 13.5 7.1377V13.1377C13.5 13.4029 13.3946 13.6573 13.2071 13.8448C13.0196 14.0323 12.7652 14.1377 12.5 14.1377C12.2348 14.1377 11.9804 14.0323 11.7929 13.8448C11.6054 13.6573 11.5 13.4029 11.5 13.1377V7.1377C11.5 6.87248 11.6054 6.61812 11.7929 6.43059C11.9804 6.24305 12.2348 6.1377 12.5 6.1377Z" fill="#FCFCFC"/>
</g>
<defs>
<clipPath id="clip0_164_2442">
<rect width="24" height="24" fill="white" transform="translate(0.5 0.137695)"/>
</clipPath>
</defs>
</svg>
